{"pageProps":{"initialData":{"slider":[{"id":"3","title":"Exceptional Design","subtitle":"İnterior","description":" ","image":{"id":"77","url":"https://foglie-dialloro.s3.eu-north-1.amazonaws.com/cc6034a29e270348ac934740a2024f10","width":3000,"height":1445}},{"id":"4","title":"Individual approach","subtitle":"Exterior","description":" ","image":{"id":"76","url":"https://foglie-dialloro.s3.eu-north-1.amazonaws.com/180ba9000fe4003901883a291cb7c39b","width":3000,"height":1445}},{"id":"5","title":"Brave ideas","subtitle":"Architecture and Design","description":" ","image":{"id":"75","url":"https://foglie-dialloro.s3.eu-north-1.amazonaws.com/58c367ef0b18454b2535e2111eff3ddf","width":3000,"height":1445}}],"about":{"title":"Foglie D’alloro","text":"<p>Foglie D&rsquo;alloro is a Baku based, design company founded in 2017. The company specializes in providing design solutions in Baku and beyond. We are a team of creative and committed designers always on hand to deliver a comprehensive range of our services, expertise and advice to help you achieve your most daring ideas.</p>\n<p>We recognize that it is not just a good design and ideas that are important, good execution is vital as well; to win client confidence, and ensure client satisfaction. We approach each project individually and contribute to it through innovative solutions.</p>","image":{"id":"72","url":"https://foglie-dialloro.s3.eu-north-1.amazonaws.com/19e9d2edbdc56c1ffef5d6d6861687e3","width":768,"height":1152},"image1":{"id":"81","url":"https://foglie-dialloro.s3.eu-north-1.amazonaws.com/7c58897f98c57b9e1e5543f332a8bcaa","width":1128,"height":814},"image2":{"id":"80","url":"https://foglie-dialloro.s3.eu-north-1.amazonaws.com/7e32a21951ea4cc84e48c785acf468c7","width":777,"height":768},"image3":{"id":"78","url":"https://foglie-dialloro.s3.eu-north-1.amazonaws.com/e899c286cadae472be6d69a286ba65d5","width":1080,"height":742},"image4":{"id":"79","url":"https://foglie-dialloro.s3.eu-north-1.amazonaws.com/624d3b725b451bf94ce27766d309f68c","width":826,"height":1050}},"posts":[{"id":24,"title":"We Are Hiring!","description":"We are looking for experienced new members to join our professional team.","image":{"id":"282","url":"https://foglie-dialloro.s3.eu-north-1.amazonaws.com/ec7ea9e79631107f5788c079e941f538","width":742,"height":504}},{"id":23,"title":"Beautiful living room ","description":"Beautiful living room ","image":{"id":"278","url":"https://foglie-dialloro.s3.eu-north-1.amazonaws.com/78ddb0e614ee38784c4b3a0dd75dde4f","width":700,"height":808}},{"id":22,"title":"Decor","description":"In any space, objects and decor elements play an important role.","image":{"id":"273","url":"https://foglie-dialloro.s3.eu-north-1.amazonaws.com/d4c4a66f7ba3289a2287d76c31914d0c","width":1170,"height":1453}}],"projects":{"data":[{"id":"38","title":"Shusha hotel and conference center","image":{"id":"261","url":"https://foglie-dialloro.s3.eu-north-1.amazonaws.com/1530104058ace03898fa81470249009d","width":1598,"height":894},"category":{"name":"Commercial"},"noContent":false},{"id":"37","title":"İnterior design proposals for apartments in Hovsan 2 Residential Complex","image":{"id":"223","url":"https://foglie-dialloro.s3.eu-north-1.amazonaws.com/5eb98413f861586310b825916ed78934","width":2000,"height":1200},"category":{"name":"Residential"},"noContent":false},{"id":"36","title":"İnterior design proposals for apartments in Hovsan 2 Residential Complex","image":{"id":"191","url":"https://foglie-dialloro.s3.amazonaws.com/d84e399e740bcba1b18632092f04455e","width":2000,"height":1000},"category":{"name":"Residential"},"noContent":false},{"id":"35","title":"İnterior design proposals for apartments in Hovsan 2 Residential Complex","image":{"id":"221","url":"https://foglie-dialloro.s3.eu-north-1.amazonaws.com/6ff7aa0c38d64a36d0c635fe654a4755","width":2000,"height":1300},"category":{"name":"Residential"},"noContent":false},{"id":"34","title":"Hovsan Residential Complex - Yards","image":{"id":"165","url":"https://foglie-dialloro.s3.eu-north-1.amazonaws.com/003036de8490277a1c73d04f8b799e33","width":3240,"height":1928},"category":{"name":"Landscape"},"noContent":false},{"id":"33","title":"Moonwake ","image":{"id":"119","url":"https://foglie-dialloro.s3.eu-north-1.amazonaws.com/5a9d1e30205ae10d3b59f56cd43721c5","width":1200,"height":900},"category":{"name":"Workplace"},"noContent":false}],"count":6,"total":12,"page":1,"pageCount":2}}},"apolloState":{},"apollo":null,"__N_SSG":true}